[
  { "name": "Miele", "category": "Your Library", "artist": "Gigi D'Alessio", "album": "Mi faccio in quattro - 2002" },
  { "name": "Don't Start Now", "category": "Your Library", "artist": "Dua Lipa", "album": "Don't Start Now - Single - 2019" },
  { "name": "Black Sands", "category": "Apple Music", "artist": "Bonobo", "album": "Black Sands - 2010" },
  { "name": "Pizza Theme", "category": "Apple Music", "artist": "RoR", "album": "The Pizza Tale (Original Soundtrack)" },
  
]
